EESchema Schematic File Version 2
LIBS:power
LIBS:device
LIBS:transistors
LIBS:conn
LIBS:linear
LIBS:regul
LIBS:74xx
LIBS:cmos4000
LIBS:adc-dac
LIBS:memory
LIBS:xilinx
LIBS:microcontrollers
LIBS:dsp
LIBS:microchip
LIBS:analog_switches
LIBS:motorola
LIBS:texas
LIBS:intel
LIBS:audio
LIBS:interface
LIBS:digital-audio
LIBS:philips
LIBS:display
LIBS:cypress
LIBS:siliconi
LIBS:opto
LIBS:atmel
LIBS:contrib
LIBS:valves
LIBS:lasercutterdistro-cache
EELAYER 25 0
EELAYER END
$Descr A4 11693 8268
encoding utf-8
Sheet 1 1
Title ""
Date ""
Rev ""
Comp ""
Comment1 ""
Comment2 ""
Comment3 ""
Comment4 ""
$EndDescr
$Comp
L 4N25 U2
U 1 1 5948EEB4
P 6250 2750
F 0 "U2" H 6050 2950 50  0000 L CNN
F 1 "4N25" H 6250 2950 50  0000 L CNN
F 2 "SOIC254P1030X460-6N:SOIC254P1030X460-6N" H 6050 2550 50  0000 L CIN
F 3 "" H 6250 2750 50  0000 L CNN
	1    6250 2750
	1    0    0    -1  
$EndComp
$Comp
L 4049 U1
U 1 1 5948EFAD
P 1850 3800
F 0 "U1" H 2045 3915 50  0000 C CNN
F 1 "4049" H 2040 3675 50  0000 C CNN
F 2 "Housings_SOIC:SOIC-16_3.9x9.9mm_Pitch1.27mm" H 1850 3800 60  0001 C CNN
F 3 "" H 1850 3800 60  0000 C CNN
	1    1850 3800
	0    1    1    0   
$EndComp
$Comp
L 4049 U1
U 2 1 5948EFD8
P 2750 3750
F 0 "U1" H 2945 3865 50  0000 C CNN
F 1 "4049" H 2940 3625 50  0000 C CNN
F 2 "Housings_SOIC:SOIC-16_3.9x9.9mm_Pitch1.27mm" H 2750 3750 60  0001 C CNN
F 3 "" H 2750 3750 60  0000 C CNN
	2    2750 3750
	0    1    1    0   
$EndComp
$Comp
L 4049 U1
U 3 1 5948F00F
P 2750 2650
F 0 "U1" H 2945 2765 50  0000 C CNN
F 1 "4049" H 2940 2525 50  0000 C CNN
F 2 "Housings_SOIC:SOIC-16_3.9x9.9mm_Pitch1.27mm" H 2750 2650 60  0001 C CNN
F 3 "" H 2750 2650 60  0000 C CNN
	3    2750 2650
	0    1    1    0   
$EndComp
$Comp
L 4049 U1
U 4 1 5948F04A
P 3250 2650
F 0 "U1" H 3445 2765 50  0000 C CNN
F 1 "4049" H 3440 2525 50  0000 C CNN
F 2 "Housings_SOIC:SOIC-16_3.9x9.9mm_Pitch1.27mm" H 3250 2650 60  0001 C CNN
F 3 "" H 3250 2650 60  0000 C CNN
	4    3250 2650
	0    1    1    0   
$EndComp
$Comp
L 4049 U1
U 5 1 5948F08D
P 3250 3750
F 0 "U1" H 3445 3865 50  0000 C CNN
F 1 "4049" H 3440 3625 50  0000 C CNN
F 2 "Housings_SOIC:SOIC-16_3.9x9.9mm_Pitch1.27mm" H 3250 3750 60  0001 C CNN
F 3 "" H 3250 3750 60  0000 C CNN
	5    3250 3750
	0    1    1    0   
$EndComp
$Comp
L 4049 U1
U 6 1 5948F0D0
P 4400 3800
F 0 "U1" H 4595 3915 50  0000 C CNN
F 1 "4049" H 4590 3675 50  0000 C CNN
F 2 "Housings_SOIC:SOIC-16_3.9x9.9mm_Pitch1.27mm" H 4400 3800 60  0001 C CNN
F 3 "" H 4400 3800 60  0000 C CNN
	6    4400 3800
	0    1    1    0   
$EndComp
$Comp
L LED D2
U 1 1 5948F123
P 2750 5000
F 0 "D2" H 2750 5100 50  0000 C CNN
F 1 "LED" H 2750 4900 50  0000 C CNN
F 2 "LEDs:LED_0603" H 2750 5000 50  0001 C CNN
F 3 "" H 2750 5000 50  0000 C CNN
	1    2750 5000
	0    -1   -1   0   
$EndComp
$Comp
L LED D1
U 1 1 5948F170
P 3250 5050
F 0 "D1" H 3250 5150 50  0000 C CNN
F 1 "LED" H 3250 4950 50  0000 C CNN
F 2 "LEDs:LED_0603" H 3250 5050 50  0001 C CNN
F 3 "" H 3250 5050 50  0000 C CNN
	1    3250 5050
	0    -1   -1   0   
$EndComp
$Comp
L GND #PWR01
U 1 1 5948F24B
P 2750 5450
F 0 "#PWR01" H 2750 5200 50  0001 C CNN
F 1 "GND" H 2750 5300 50  0000 C CNN
F 2 "" H 2750 5450 50  0000 C CNN
F 3 "" H 2750 5450 50  0000 C CNN
	1    2750 5450
	1    0    0    -1  
$EndComp
$Comp
L +5V #PWR02
U 1 1 5948F271
P 4050 1350
F 0 "#PWR02" H 4050 1200 50  0001 C CNN
F 1 "+5V" H 4050 1490 50  0000 C CNN
F 2 "" H 4050 1350 50  0000 C CNN
F 3 "" H 4050 1350 50  0000 C CNN
	1    4050 1350
	1    0    0    -1  
$EndComp
$Comp
L R R1
U 1 1 5948F61E
P 3250 4550
F 0 "R1" V 3330 4550 50  0000 C CNN
F 1 "330" V 3250 4550 50  0000 C CNN
F 2 "Resistors_SMD:R_0805_HandSoldering" V 3180 4550 50  0001 C CNN
F 3 "" H 3250 4550 50  0000 C CNN
	1    3250 4550
	1    0    0    -1  
$EndComp
$Comp
L R R2
U 1 1 5948F65D
P 2750 4500
F 0 "R2" V 2830 4500 50  0000 C CNN
F 1 "330" V 2750 4500 50  0000 C CNN
F 2 "Resistors_SMD:R_0805_HandSoldering" V 2680 4500 50  0001 C CNN
F 3 "" H 2750 4500 50  0000 C CNN
	1    2750 4500
	1    0    0    -1  
$EndComp
$Comp
L R R3
U 1 1 59490CB4
P 3650 1600
F 0 "R3" V 3730 1600 50  0000 C CNN
F 1 "10K" V 3650 1600 50  0000 C CNN
F 2 "Resistors_SMD:R_0805_HandSoldering" V 3580 1600 50  0001 C CNN
F 3 "" H 3650 1600 50  0000 C CNN
	1    3650 1600
	0    1    1    0   
$EndComp
$Comp
L R R4
U 1 1 59490D89
P 3650 1900
F 0 "R4" V 3730 1900 50  0000 C CNN
F 1 "10K" V 3650 1900 50  0000 C CNN
F 2 "Resistors_SMD:R_0805_HandSoldering" V 3580 1900 50  0001 C CNN
F 3 "" H 3650 1900 50  0000 C CNN
	1    3650 1900
	0    1    1    0   
$EndComp
$Comp
L CONN_01X04 P2
U 1 1 59491905
P 2300 6000
F 0 "P2" H 2300 6250 50  0000 C CNN
F 1 "CONN_01X04" V 2400 6000 50  0000 C CNN
F 2 "Terminal_Blocks:TerminalBlock_Pheonix_PT-3.5mm_4pol" H 2300 6000 50  0000 C CNN
F 3 "" H 2300 6000 50  0000 C CNN
	1    2300 6000
	0    1    1    0   
$EndComp
$Comp
L CONN_01X04 P3
U 1 1 59491B6F
P 5050 1750
F 0 "P3" H 5050 2000 50  0000 C CNN
F 1 "CONN_01X04" V 5150 1750 50  0000 C CNN
F 2 "Terminal_Blocks:TerminalBlock_Pheonix_PT-3.5mm_4pol" H 5050 1750 50  0000 C CNN
F 3 "" H 5050 1750 50  0000 C CNN
	1    5050 1750
	-1   0    0    1   
$EndComp
$Comp
L GND #PWR03
U 1 1 59491C0A
P 5400 2050
F 0 "#PWR03" H 5400 1800 50  0001 C CNN
F 1 "GND" H 5400 1900 50  0000 C CNN
F 2 "" H 5400 2050 50  0000 C CNN
F 3 "" H 5400 2050 50  0000 C CNN
	1    5400 2050
	1    0    0    -1  
$EndComp
$Comp
L CONN_01X04 P4
U 1 1 59491C79
P 6500 1700
F 0 "P4" H 6500 1950 50  0000 C CNN
F 1 "CONN_01X04" V 6600 1700 50  0000 C CNN
F 2 "Terminal_Blocks:TerminalBlock_Pheonix_PT-3.5mm_4pol" H 6500 1700 50  0000 C CNN
F 3 "" H 6500 1700 50  0000 C CNN
	1    6500 1700
	-1   0    0    1   
$EndComp
$Comp
L GND #PWR04
U 1 1 59491CCE
P 7300 1850
F 0 "#PWR04" H 7300 1600 50  0001 C CNN
F 1 "GND" H 7300 1700 50  0000 C CNN
F 2 "" H 7300 1850 50  0000 C CNN
F 3 "" H 7300 1850 50  0000 C CNN
	1    7300 1850
	1    0    0    -1  
$EndComp
$Comp
L +5V #PWR05
U 1 1 59491D04
P 7300 1450
F 0 "#PWR05" H 7300 1300 50  0001 C CNN
F 1 "+5V" H 7300 1590 50  0000 C CNN
F 2 "" H 7300 1450 50  0000 C CNN
F 3 "" H 7300 1450 50  0000 C CNN
	1    7300 1450
	1    0    0    -1  
$EndComp
$Comp
L R R5
U 1 1 59491EB2
P 5650 2250
F 0 "R5" V 5730 2250 50  0000 C CNN
F 1 "200" V 5650 2250 50  0000 C CNN
F 2 "Resistors_SMD:R_0805_HandSoldering" V 5580 2250 50  0001 C CNN
F 3 "" H 5650 2250 50  0000 C CNN
	1    5650 2250
	1    0    0    -1  
$EndComp
Wire Wire Line
	2750 4200 2750 4350
Wire Wire Line
	2750 4650 2750 4800
Wire Wire Line
	2750 5200 2750 5450
Wire Wire Line
	3250 4700 3250 4850
Wire Wire Line
	2250 5250 3250 5250
Connection ~ 2750 5250
Wire Wire Line
	3250 4200 3250 4400
Wire Wire Line
	2650 3700 2250 3700
Wire Wire Line
	2250 3700 2250 5250
Wire Wire Line
	2750 3100 2750 3300
Wire Wire Line
	1850 3350 1850 3300
Wire Wire Line
	1850 3300 2750 3300
Wire Wire Line
	3250 3100 3250 3300
Wire Wire Line
	4400 3350 4400 3250
Wire Wire Line
	4400 3250 3250 3250
Connection ~ 3250 3250
Wire Wire Line
	3250 1900 3250 2200
Wire Wire Line
	4050 1350 4050 3700
Wire Wire Line
	4050 1900 3800 1900
Wire Wire Line
	3800 1600 4050 1600
Connection ~ 4050 1600
Wire Wire Line
	4050 3700 3350 3700
Connection ~ 4050 1900
Connection ~ 2750 3300
Wire Wire Line
	2450 5800 2450 5250
Connection ~ 2450 5250
Wire Wire Line
	1850 4250 1850 5800
Wire Wire Line
	1850 5800 2150 5800
Wire Wire Line
	2250 5800 2250 5700
Wire Wire Line
	2250 5700 4400 5700
Wire Wire Line
	4400 5700 4400 4250
Wire Wire Line
	5400 2050 5400 1900
Wire Wire Line
	5250 1900 5650 1900
Wire Wire Line
	6700 1750 7300 1750
Wire Wire Line
	7300 1750 7300 1850
Wire Wire Line
	7300 1450 7300 1650
Wire Wire Line
	7300 1650 6700 1650
Wire Wire Line
	5650 1900 5650 2100
Connection ~ 5400 1900
Wire Wire Line
	5950 2850 5650 2850
Wire Wire Line
	5650 2850 5650 2400
Wire Wire Line
	5250 1800 5800 1800
Wire Wire Line
	5800 1800 5800 2650
Wire Wire Line
	5800 2650 5950 2650
Wire Wire Line
	6700 1550 6850 1550
Wire Wire Line
	6850 1550 6850 2750
Wire Wire Line
	6850 2750 6550 2750
Wire Wire Line
	6550 2850 7050 2850
Wire Wire Line
	7050 2850 7050 1750
Connection ~ 7050 1750
Wire Wire Line
	3250 1900 3500 1900
Wire Wire Line
	2750 2200 2750 1600
Wire Wire Line
	2750 1600 3500 1600
$Comp
L CONN_01X08 P1
U 1 1 5949235D
P 1700 1500
F 0 "P1" H 1700 1950 50  0000 C CNN
F 1 "CONN_01X08" V 1800 1500 50  0000 C CNN
F 2 "Terminal_Blocks:TerminalBlock_Pheonix_PT-3.5mm_8pol" H 1700 1500 50  0000 C CNN
F 3 "" H 1700 1500 50  0000 C CNN
	1    1700 1500
	0    -1   -1   0   
$EndComp
$Comp
L CONN_01X04 P5
U 1 1 594923E4
P 950 2000
F 0 "P5" H 950 2250 50  0000 C CNN
F 1 "CONN_01X04" V 1050 2000 50  0000 C CNN
F 2 "Terminal_Blocks:TerminalBlock_Pheonix_PT-3.5mm_4pol" H 950 2000 50  0000 C CNN
F 3 "" H 950 2000 50  0000 C CNN
	1    950  2000
	-1   0    0    1   
$EndComp
Wire Wire Line
	1350 1700 1350 2150
Wire Wire Line
	1350 2150 1150 2150
Wire Wire Line
	1450 1700 1450 2050
Wire Wire Line
	1450 2050 1150 2050
Wire Wire Line
	1550 1700 1550 1950
Wire Wire Line
	1550 1950 1150 1950
Wire Wire Line
	1650 1700 1650 1850
Wire Wire Line
	1650 1850 1150 1850
$Comp
L GND #PWR06
U 1 1 59492591
P 1750 2100
F 0 "#PWR06" H 1750 1850 50  0001 C CNN
F 1 "GND" H 1750 1950 50  0000 C CNN
F 2 "" H 1750 2100 50  0000 C CNN
F 3 "" H 1750 2100 50  0000 C CNN
	1    1750 2100
	1    0    0    -1  
$EndComp
$Comp
L +5V #PWR07
U 1 1 594925CB
P 2350 1700
F 0 "#PWR07" H 2350 1550 50  0001 C CNN
F 1 "+5V" H 2350 1840 50  0000 C CNN
F 2 "" H 2350 1700 50  0000 C CNN
F 3 "" H 2350 1700 50  0000 C CNN
	1    2350 1700
	1    0    0    -1  
$EndComp
Wire Wire Line
	2050 1700 2050 1850
Wire Wire Line
	2050 1850 2350 1850
Wire Wire Line
	2350 1850 2350 1700
Wire Wire Line
	1750 1700 1750 2100
Wire Wire Line
	1950 1700 1950 1950
Wire Wire Line
	1850 1700 1850 2050
Wire Wire Line
	1850 2050 3250 2050
Connection ~ 3250 2050
Wire Wire Line
	1950 1950 2750 1950
Connection ~ 2750 1950
Text Notes 5150 3900 0    60   ~ 0
P1 - To X Motor and X/Y Limit Switches\nP2 - To PiCNC X/Y Limit Switch Connector\nP3 - To PiCNC Spindle Connector\nP4 - To Power Supply Laser Connector
Text Notes 7650 6850 0    60   ~ 0
Laser Cutter Control PCB
$EndSCHEMATC
